TMS570LC43_Async_NHET1_PWM_NHET2_Monitoring/HET_code/Async_PWM_Triangle_Wave/het.vcd
$date
     Jan 09, 2020       20:59:55
$end

$version
              SystemC 2.2.0 --- Aug  7 2015 17:35:54
$end

$timescale
     1 ps
$end

$scope module SystemC $end
$var wire    1  aaa  HETCLK       $end
$var wire    1  aab  LOOP_RESOLUTION_CLK       $end
$var wire    1  aac  HIGH_RESOLUTION_CLK       $end
$var wire   32  aad  A [31:0]  $end
$var wire   32  aae  B [31:0]  $end
$var wire   32  aaf  T [31:0]  $end
$var wire    1  aag  Z       $end
$var wire    1  aah  X       $end
$var wire    1  aai  SWT       $end
$var wire    1  aaj  NAF       $end
$var wire    1  aak  AF       $end
$var wire    1  aal  DCF       $end
$var wire    1  aam  GPF       $end
$var wire   32  aan  Loop_Count [31:0]  $end
$upscope $end
$enddefinitions  $end

$comment
All initial values are dumped below at time 0 sec = 0 timescale units.
$end

$dumpvars
1aaa
0aab
1aac
b0 aad
b0 aae
b0 aaf
0aag
0aah
0aai
0aaj
0aak
0aal
0aam
b0 aan
$end

#6667
0aaa
0aac

#13334
1aaa
1aac

#20001
0aaa
0aac

#26668
1aaa
1aac

#33335
0aaa
0aac

#40002
1aaa
1aac

#46669
0aaa
0aac

#53336
1aaa
1aac

#60003
0aaa
0aac

#66670
1aaa
1aac

#73337
0aaa
0aac

#80004
1aaa
1aac

#86671
0aaa
0aac

#93338
1aaa
1aac

#100005
0aaa
0aac

#106672
1aaa
1aac

#113339
0aaa
0aac

#120006
1aaa
1aac

#126673
0aaa
0aac

#133340
1aaa
1aac

#140007
0aaa
0aac

#146674
1aaa
1aac

#153341
0aaa
0aac

#160008
1aaa
1aac

#166675
0aaa
0aac

#173342
1aaa
1aac

#180009
0aaa
0aac

#186676
1aaa
1aac

#193343
0aaa
0aac

#200010
1aaa
1aac

#206677
0aaa
0aac

#213344
1aaa
1aac

#220011
0aaa
0aac

#226678
1aaa
1aac

#233345
0aaa
0aac

#240012
1aaa
1aac

#246679
0aaa
0aac

#253346
1aaa
1aac

#260013
0aaa
0aac

#266680
1aaa
1aac

#273347
0aaa
0aac

#280014
1aaa
1aac

#286681
0aaa
0aac

#293348
1aaa
1aac

#300015
0aaa
0aac

#306682
1aaa
1aac

#313349
0aaa
0aac

#320016
1aaa
1aac

#326683
0aaa
0aac

#333350
1aaa
1aac

#340017
0aaa
0aac

#346684
1aaa
1aac

#353351
0aaa
0aac

#360018
1aaa
1aac

#366685
0aaa
0aac

#373352
1aaa
1aac

#380019
0aaa
0aac

#386686
1aaa
1aac

#393353
0aaa
0aac

#400020
1aaa
1aac

#406687
0aaa
0aac

#413354
1aaa
1aab
1aac

#420021
0aaa
0aac

#426688
1aaa
0aab
1aac
b1010000000 aaf
b1 aan

#433355
0aaa
0aac

#440022
1aaa
1aac

#446689
0aaa
0aac

#453356
1aaa
1aac

#460023
0aaa
0aac

#466690
1aaa
1aac

#473357
0aaa
0aac

#480024
1aaa
1aac

#486691
0aaa
0aac

#493358
1aaa
1aac

#500025
0aaa
0aac

#506692
1aaa
1aac

#513359
0aaa
0aac

#520026
1aaa
1aac

#526693
0aaa
0aac

#533360
1aaa
1aac

#540027
0aaa
0aac

#546694
1aaa
1aac

#553361
0aaa
0aac

#560028
1aaa
1aac

#566695
0aaa
0aac

#573362
1aaa
1aac

#580029
0aaa
0aac

#586696
1aaa
1aac

#593363
0aaa
0aac

#600030
1aaa
1aac

#606697
0aaa
0aac

#613364
1aaa
1aac

#620031
0aaa
0aac

#626698
1aaa
1aac

#633365
0aaa
0aac

#640032
1aaa
1aac

#646699
0aaa
0aac

#653366
1aaa
1aac

#660033
0aaa
0aac

#666700
1aaa
1aac

#673367
0aaa
0aac

#680034
1aaa
1aac

#686701
0aaa
0aac

#693368
1aaa
1aac

#700035
0aaa
0aac

#706702
1aaa
1aac

#713369
0aaa
0aac

#720036
1aaa
1aac

#726703
0aaa
0aac

#733370
1aaa
1aac

#740037
0aaa
0aac

#746704
1aaa
1aac

#753371
0aaa
0aac

#760038
1aaa
1aac

#766705
0aaa
0aac

#773372
1aaa
1aac

#780039
0aaa
0aac

#786706
1aaa
1aac

#793373
0aaa
0aac

#800040
1aaa
1aac

#806707
0aaa
0aac

#813374
1aaa
1aac

#820041
0aaa
0aac

#826708
1aaa
1aac

#833375
0aaa
0aac

#840042
1aaa
1aab
1aac

#846709
0aaa
0aac

#853376
1aaa
0aab
1aac
b10 aan

#860043
0aaa
0aac

#866710
1aaa
1aac

#873377
0aaa
0aac

#880044
1aaa
1aac

#886711
0aaa
0aac

#893378
1aaa
1aac

#900045
0aaa
0aac

#906712
1aaa
1aac

#913379
0aaa
0aac

#920046
1aaa
1aac

#926713
0aaa
0aac

#933380
1aaa
1aac

#940047
0aaa
0aac

#946714
1aaa
1aac

#953381
0aaa
0aac

#960048
1aaa
1aac

#966715
0aaa
0aac

#973382
1aaa
1aac

#980049
0aaa
0aac

#986716
1aaa
1aac

#993383
0aaa
0aac

#1000050
1aaa
1aac

#1006717
0aaa
0aac

#1013384
1aaa
1aac

#1020051
0aaa
0aac

#1026718
1aaa
1aac

#1033385
0aaa
0aac

#1040052
1aaa
1aac

#1046719
0aaa
0aac

#1053386
1aaa
1aac

#1060053
0aaa
0aac

#1066720
1aaa
1aac

#1073387
0aaa
0aac

#1080054
1aaa
1aac

#1086721
0aaa
0aac

#1093388
1aaa
1aac

#1100055
0aaa
0aac

#1106722
1aaa
1aac

#1113389
0aaa
0aac

#1120056
1aaa
1aac

#1126723
0aaa
0aac

#1133390
1aaa
1aac

#1140057
0aaa
0aac

#1146724
1aaa
1aac

#1153391
0aaa
0aac

#1160058
1aaa
1aac

#1166725
0aaa
0aac

#1173392
1aaa
1aac

#1180059
0aaa
0aac

#1186726
1aaa
1aac

#1193393
0aaa
0aac

#1200060
1aaa
1aac

#1206727
0aaa
0aac

#1213394
1aaa
1aac

#1220061
0aaa
0aac

#1226728
1aaa
1aac

#1233395
0aaa
0aac

#1240062
1aaa
1aac

#1246729
0aaa
0aac

#1253396
1aaa
1aac

#1260063
0aaa
0aac

#1266730
1aaa
1aab
1aac

#1273397
0aaa
0aac

#1280064
1aaa
0aab
1aac
b11 aan

#1286731
0aaa
0aac

#1293398
1aaa
1aac

#1300065
0aaa
0aac

#1306732
1aaa
1aac

#1313399
0aaa
0aac

#1320066
1aaa
1aac

#1326733
0aaa
0aac

#1333400
1aaa
1aac

#1340067
0aaa
0aac

#1346734
1aaa
1aac

#1353401
0aaa
0aac

#1360068
1aaa
1aac

#1366735
0aaa
0aac

#1373402
1aaa
1aac

#1380069
0aaa
0aac

#1386736
1aaa
1aac

#1393403
0aaa
0aac

#1400070
1aaa
1aac

#1406737
0aaa
0aac

#1413404
1aaa
1aac

#1420071
0aaa
0aac

#1426738
1aaa
1aac

#1433405
0aaa
0aac

#1440072
1aaa
1aac

#1446739
0aaa
0aac

#1453406
1aaa
1aac

#1460073
0aaa
0aac

#1466740
1aaa
1aac

#1473407
0aaa
0aac

#1480074
1aaa
1aac

#1486741
0aaa
0aac

#1493408
1aaa
1aac

#1500075
0aaa
0aac

#1506742
1aaa
1aac

#1513409
0aaa
0aac

#1520076
1aaa
1aac

#1526743
0aaa
0aac

#1533410
1aaa
1aac

#1540077
0aaa
0aac

#1546744
1aaa
1aac

#1553411
0aaa
0aac

#1560078
1aaa
1aac

#1566745
0aaa
0aac

#1573412
1aaa
1aac

#1580079
0aaa
0aac

#1586746
1aaa
1aac

#1593413
0aaa
0aac

#1600080
1aaa
1aac

#1606747
0aaa
0aac

#1613414
1aaa
1aac

#1620081
0aaa
0aac

#1626748
1aaa
1aac

#1633415
0aaa
0aac

#1640082
1aaa
1aac

#1646749
0aaa
0aac

#1653416
1aaa
1aac

#1660083
0aaa
0aac

#1666750
1aaa
1aac

#1673417
0aaa
0aac

#1680084
1aaa
1aac

#1686751
0aaa
0aac

#1693418
1aaa
1aab
1aac

#1700085
0aaa
0aac

#1706752
1aaa
0aab
1aac
b100 aan

#1713419
0aaa
0aac

#1720086
1aaa
1aac

#1726753
0aaa
0aac

#1733420
1aaa
1aac

#1740087
0aaa
0aac

#1746754
1aaa
1aac

#1753421
0aaa
0aac

#1760088
1aaa
1aac

#1766755
0aaa
0aac

#1773422
1aaa
1aac

#1780089
0aaa
0aac

#1786756
1aaa
1aac

#1793423
0aaa
0aac

#1800090
1aaa
1aac

#1806757
0aaa
0aac

#1813424
1aaa
1aac

#1820091
0aaa
0aac

#1826758
1aaa
1aac

#1833425
0aaa
0aac

#1840092
1aaa
1aac

#1846759
0aaa
0aac

#1853426
1aaa
1aac

#1860093
0aaa
0aac

#1866760
1aaa
1aac

#1873427
0aaa
0aac

#1880094
1aaa
1aac

#1886761
0aaa
0aac

#1893428
1aaa
1aac

#1900095
0aaa
0aac

#1906762
1aaa
1aac

#1913429
0aaa
0aac

#1920096
1aaa
1aac

#1926763
0aaa
0aac

#1933430
1aaa
1aac

#1940097
0aaa
0aac

#1946764
1aaa
1aac

#1953431
0aaa
0aac

#1960098
1aaa
1aac

#1966765
0aaa
0aac

#1973432
1aaa
1aac

#1980099
0aaa
0aac

#1986766
1aaa
1aac

#1993433
0aaa
0aac

#2000100
1aaa
1aac

#2006767
0aaa
0aac

#2013434
1aaa
1aac

#2020101
0aaa
0aac

#2026768
1aaa
1aac

#2033435
0aaa
0aac

#2040102
1aaa
1aac

#2046769
0aaa
0aac

#2053436
1aaa
1aac

#2060103
0aaa
0aac

#2066770
1aaa
1aac

#2073437
0aaa
0aac

#2080104
1aaa
1aac

#2086771
0aaa
0aac

#2093438
1aaa
1aac

#2100105
0aaa
0aac

#2106772
1aaa
1aac

#2113439
0aaa
0aac

#2120106
1aaa
1aab
1aac

#2126773
0aaa
0aac

#2133440
1aaa
0aab
1aac
b101 aan

#2140107
0aaa
0aac

#2146774
1aaa
1aac

#2153441
0aaa
0aac

#2160108
1aaa
1aac

#2166775
0aaa
0aac

#2173442
1aaa
1aac

#2180109
0aaa
0aac

#2186776
1aaa
1aac

#2193443
0aaa
0aac

#2200110
1aaa
1aac

#2206777
0aaa
0aac

#2213444
1aaa
1aac

#2220111
0aaa
0aac

#2226778
1aaa
1aac

#2233445
0aaa
0aac

#2240112
1aaa
1aac

#2246779
0aaa
0aac

#2253446
1aaa
1aac

#2260113
0aaa
0aac

#2266780
1aaa
1aac

#2273447
0aaa
0aac

#2280114
1aaa
1aac

#2286781
0aaa
0aac

#2293448
1aaa
1aac

#2300115
0aaa
0aac

#2306782
1aaa
1aac

#2313449
0aaa
0aac

#2320116
1aaa
1aac

#2326783
0aaa
0aac

#2333450
1aaa
1aac

#2340117
0aaa
0aac

#2346784
1aaa
1aac

#2353451
0aaa
0aac

#2360118
1aaa
1aac

#2366785
0aaa
0aac

#2373452
1aaa
1aac

#2380119
0aaa
0aac

#2386786
1aaa
1aac

#2393453
0aaa
0aac

#2400120
1aaa
1aac

#2406787
0aaa
0aac

#2413454
1aaa
1aac

#2420121
0aaa
0aac

#2426788
1aaa
1aac

#2433455
0aaa
0aac

#2440122
1aaa
1aac

#2446789
0aaa
0aac

#2453456
1aaa
1aac

#2460123
0aaa
0aac

#2466790
1aaa
1aac

#2473457
0aaa
0aac

#2480124
1aaa
1aac

#2486791
0aaa
0aac

#2493458
1aaa
1aac

#2500125
0aaa
0aac

#2506792
1aaa
1aac

#2513459
0aaa
0aac

#2520126
1aaa
1aac

#2526793
0aaa
0aac

#2533460
1aaa
1aac

#2540127
0aaa
0aac

#2546794
1aaa
1aab
1aac

#2553461
0aaa
0aac

#2560128
1aaa
0aab
1aac
b110 aan

#2566795
0aaa
0aac

#2573462
1aaa
1aac

#2580129
0aaa
0aac

#2586796
1aaa
1aac

#2593463
0aaa
0aac

#2600130
1aaa
1aac

#2606797
0aaa
0aac

#2613464
1aaa
1aac

#2620131
0aaa
0aac

#2626798
1aaa
1aac

#2633465
0aaa
0aac

#2640132
1aaa
1aac

#2646799
0aaa
0aac

#2653466
1aaa
1aac

#2660133
0aaa
0aac

#2666800
1aaa
1aac

#2673467
0aaa
0aac

#2680134
1aaa
1aac

#2686801
0aaa
0aac

#2693468
1aaa
1aac

#2700135
0aaa
0aac

#2706802
1aaa
1aac

#2713469
0aaa
0aac

#2720136
1aaa
1aac

#2726803
0aaa
0aac

#2733470
1aaa
1aac

#2740137
0aaa
0aac

#2746804
1aaa
1aac

#2753471
0aaa
0aac

#2760138
1aaa
1aac

#2766805
0aaa
0aac

#2773472
1aaa
1aac

#2780139
0aaa
0aac

#2786806
1aaa
1aac

#2793473
0aaa
0aac

#2800140
1aaa
1aac

#2806807
0aaa
0aac

#2813474
1aaa
1aac

#2820141
0aaa
0aac

#2826808
1aaa
1aac

#2833475
0aaa
0aac

#2840142
1aaa
1aac

#2846809
0aaa
0aac

#2853476
1aaa
1aac

#2860143
0aaa
0aac

#2866810
1aaa
1aac

#2873477
0aaa
0aac

#2880144
1aaa
1aac

#2886811
0aaa
0aac

#2893478
1aaa
1aac

#2900145
0aaa
0aac

#2906812
1aaa
1aac

#2913479
0aaa
0aac

#2920146
1aaa
1aac

#2926813
0aaa
0aac

#2933480
1aaa
1aac

#2940147
0aaa
0aac

#2946814
1aaa
1aac

#2953481
0aaa
0aac

#2960148
1aaa
1aac

#2966815
0aaa
0aac

#2973482
1aaa
1aab
1aac

#2980149
0aaa
0aac

#2986816
1aaa
0aab
1aac
b111 aan

#2993483
0aaa
0aac

#3000150
1aaa
1aac

#3006817
0aaa
0aac

#3013484
1aaa
1aac

#3020151
0aaa
0aac

#3026818
1aaa
1aac

#3033485
0aaa
0aac

#3040152
1aaa
1aac

#3046819
0aaa
0aac

#3053486
1aaa
1aac

#3060153
0aaa
0aac

#3066820
1aaa
1aac

#3073487
0aaa
0aac

#3080154
1aaa
1aac

#3086821
0aaa
0aac

#3093488
1aaa
1aac

#3100155
0aaa
0aac

#3106822
1aaa
1aac

#3113489
0aaa
0aac

#3120156
1aaa
1aac

#3126823
0aaa
0aac

#3133490
1aaa
1aac

#3140157
0aaa
0aac

#3146824
1aaa
1aac

#3153491
0aaa
0aac

#3160158
1aaa
1aac

#3166825
0aaa
0aac

#3173492
1aaa
1aac

#3180159
0aaa
0aac

#3186826
1aaa
1aac

#3193493
0aaa
0aac

#3200160
1aaa
1aac

#3206827
0aaa
0aac

#3213494
1aaa
1aac

#3220161
0aaa
0aac

#3226828
1aaa
1aac

#3233495
0aaa
0aac

#3240162
1aaa
1aac

#3246829
0aaa
0aac

#3253496
1aaa
1aac

#3260163
0aaa
0aac

#3266830
1aaa
1aac

#3273497
0aaa
0aac

#3280164
1aaa
1aac

#3286831
0aaa
0aac

#3293498
1aaa
1aac

#3300165
0aaa
0aac

#3306832
1aaa
1aac

#3313499
0aaa
0aac

#3320166
1aaa
1aac

#3326833
0aaa
0aac

#3333500
1aaa
1aac

#3340167
0aaa
0aac

#3346834
1aaa
1aac

#3353501
0aaa
0aac

#3360168
1aaa
1aac

#3366835
0aaa
0aac

#3373502
1aaa
1aac

#3380169
0aaa
0aac

#3386836
1aaa
1aac

#3393503
0aaa
0aac

#3400170
1aaa
1aab
1aac

#3406837
0aaa
0aac

#3413504
1aaa
0aab
1aac
b1000 aan

